{"pageProps":{"info":{"count":826,"pages":42,"next":"https://rickandmortyapi.com/api/character/?page=38","prev":"https://rickandmortyapi.com/api/character/?page=36"},"characters":[{"id":721,"name":"Xing Ho","status":"Dead","species":"Human","type":"","gender":"Female","origin":{"name":"Earth (Replacement Dimension)","url":"https://rickandmortyapi.com/api/location/20"},"location":{"name":"Earth (Replacement Dimension)","url":"https://rickandmortyapi.com/api/location/20"},"image":"https://rickandmortyapi.com/api/character/avatar/721.jpeg","episode":["https://rickandmortyapi.com/api/episode/44"],"url":"https://rickandmortyapi.com/api/character/721","created":"2021-10-17T09:57:46.574Z"},{"id":722,"name":"Air Tina-Teer","status":"Dead","species":"Human","type":"","gender":"Female","origin":{"name":"Earth (Replacement Dimension)","url":"https://rickandmortyapi.com/api/location/20"},"location":{"name":"Earth (Replacement Dimension)","url":"https://rickandmortyapi.com/api/location/20"},"image":"https://rickandmortyapi.com/api/character/avatar/722.jpeg","episode":["https://rickandmortyapi.com/api/episode/44"],"url":"https://rickandmortyapi.com/api/character/722","created":"2021-10-17T09:58:49.388Z"},{"id":723,"name":"Water Tina-Teer","status":"Dead","species":"Human","type":"","gender":"Male","origin":{"name":"Earth (Replacement Dimension)","url":"https://rickandmortyapi.com/api/location/20"},"location":{"name":"Earth (Replacement Dimension)","url":"https://rickandmortyapi.com/api/location/20"},"image":"https://rickandmortyapi.com/api/character/avatar/723.jpeg","episode":["https://rickandmortyapi.com/api/episode/44"],"url":"https://rickandmortyapi.com/api/character/723","created":"2021-10-17T09:59:26.786Z"},{"id":724,"name":"Planetina Buyer","status":"Dead","species":"Human","type":"","gender":"Male","origin":{"name":"Earth (Replacement Dimension)","url":"https://rickandmortyapi.com/api/location/20"},"location":{"name":"Earth (Replacement Dimension)","url":"https://rickandmortyapi.com/api/location/20"},"image":"https://rickandmortyapi.com/api/character/avatar/724.jpeg","episode":["https://rickandmortyapi.com/api/episode/44"],"url":"https://rickandmortyapi.com/api/character/724","created":"2021-10-17T10:00:06.914Z"},{"id":725,"name":"Tony Galopagus","status":"Alive","species":"Human","type":"","gender":"Male","origin":{"name":"Earth (Replacement Dimension)","url":"https://rickandmortyapi.com/api/location/20"},"location":{"name":"Earth (Replacement Dimension)","url":"https://rickandmortyapi.com/api/location/20"},"image":"https://rickandmortyapi.com/api/character/avatar/725.jpeg","episode":["https://rickandmortyapi.com/api/episode/44"],"url":"https://rickandmortyapi.com/api/character/725","created":"2021-10-17T10:01:10.143Z"},{"id":726,"name":"Sticky","status":"Alive","species":"unknown","type":"Super Sperm Monster","gender":"Male","origin":{"name":"Morty","url":"https://rickandmortyapi.com/api/location/114"},"location":{"name":"Earth (Replacement Dimension)","url":"https://rickandmortyapi.com/api/location/20"},"image":"https://rickandmortyapi.com/api/character/avatar/726.jpeg","episode":["https://rickandmortyapi.com/api/episode/45"],"url":"https://rickandmortyapi.com/api/character/726","created":"2021-10-17T10:09:46.047Z"},{"id":727,"name":"Professor Shabooboo","status":"Dead","species":"Human","type":"","gender":"Male","origin":{"name":"Earth (Replacement Dimension)","url":"https://rickandmortyapi.com/api/location/20"},"location":{"name":"Earth (Replacement Dimension)","url":"https://rickandmortyapi.com/api/location/20"},"image":"https://rickandmortyapi.com/api/character/avatar/727.jpeg","episode":["https://rickandmortyapi.com/api/episode/45"],"url":"https://rickandmortyapi.com/api/character/727","created":"2021-10-17T10:10:44.560Z"},{"id":728,"name":"Sperm Queen","status":"Dead","species":"unknown","type":"Super Sperm Monster","gender":"Female","origin":{"name":"Morty","url":"https://rickandmortyapi.com/api/location/114"},"location":{"name":"Earth (Replacement Dimension)","url":"https://rickandmortyapi.com/api/location/20"},"image":"https://rickandmortyapi.com/api/character/avatar/728.jpeg","episode":["https://rickandmortyapi.com/api/episode/45"],"url":"https://rickandmortyapi.com/api/character/728","created":"2021-10-17T10:12:05.246Z"},{"id":729,"name":"CHUD King","status":"Alive","species":"Animal","type":"CHUD","gender":"Male","origin":{"name":"Earth (Replacement Dimension)","url":"https://rickandmortyapi.com/api/location/20"},"location":{"name":"Earth (Replacement Dimension)","url":"https://rickandmortyapi.com/api/location/20"},"image":"https://rickandmortyapi.com/api/character/avatar/729.jpeg","episode":["https://rickandmortyapi.com/api/episode/45"],"url":"https://rickandmortyapi.com/api/character/729","created":"2021-10-17T10:32:39.601Z"},{"id":730,"name":"Princess Ponietta","status":"Alive","species":"Animal","type":"CHUD","gender":"Female","origin":{"name":"Earth (Replacement Dimension)","url":"https://rickandmortyapi.com/api/location/20"},"location":{"name":"Earth (Replacement Dimension)","url":"https://rickandmortyapi.com/api/location/20"},"image":"https://rickandmortyapi.com/api/character/avatar/730.jpeg","episode":["https://rickandmortyapi.com/api/episode/45"],"url":"https://rickandmortyapi.com/api/character/730","created":"2021-10-17T10:35:15.825Z"},{"id":731,"name":"Naruto Smith","status":"Alive","species":"Humanoid","type":"Giant Incest Baby","gender":"Male","origin":{"name":"Earth (Replacement Dimension)","url":"https://rickandmortyapi.com/api/location/20"},"location":{"name":"Space","url":"https://rickandmortyapi.com/api/location/115"},"image":"https://rickandmortyapi.com/api/character/avatar/731.jpeg","episode":["https://rickandmortyapi.com/api/episode/45","https://rickandmortyapi.com/api/episode/48"],"url":"https://rickandmortyapi.com/api/character/731","created":"2021-10-17T11:56:17.275Z"},{"id":732,"name":"Blazen","status":"Dead","species":"Human","type":"","gender":"Male","origin":{"name":"Earth (Replacement Dimension)","url":"https://rickandmortyapi.com/api/location/20"},"location":{"name":"Earth (Replacement Dimension)","url":"https://rickandmortyapi.com/api/location/20"},"image":"https://rickandmortyapi.com/api/character/avatar/732.jpeg","episode":["https://rickandmortyapi.com/api/episode/45"],"url":"https://rickandmortyapi.com/api/character/732","created":"2021-10-17T11:59:00.689Z"},{"id":733,"name":"Kathy Ireland","status":"Alive","species":"Human","type":"","gender":"Female","origin":{"name":"Earth (Replacement Dimension)","url":"https://rickandmortyapi.com/api/location/20"},"location":{"name":"Earth (Replacement Dimension)","url":"https://rickandmortyapi.com/api/location/20"},"image":"https://rickandmortyapi.com/api/character/avatar/733.jpeg","episode":["https://rickandmortyapi.com/api/episode/45"],"url":"https://rickandmortyapi.com/api/character/733","created":"2021-10-17T12:00:07.076Z"},{"id":734,"name":"Amazing Johnathan","status":"Alive","species":"Human","type":"","gender":"Male","origin":{"name":"Earth (Replacement Dimension)","url":"https://rickandmortyapi.com/api/location/20"},"location":{"name":"Earth (Replacement Dimension)","url":"https://rickandmortyapi.com/api/location/20"},"image":"https://rickandmortyapi.com/api/character/avatar/734.jpeg","episode":["https://rickandmortyapi.com/api/episode/45"],"url":"https://rickandmortyapi.com/api/character/734","created":"2021-10-17T12:00:50.753Z"},{"id":735,"name":"Foal Sanchez","status":"Alive","species":"Humanoid","type":"CHUD Human Mix","gender":"unknown","origin":{"name":"Earth (Replacement Dimension)","url":"https://rickandmortyapi.com/api/location/20"},"location":{"name":"Earth (Replacement Dimension)","url":"https://rickandmortyapi.com/api/location/20"},"image":"https://rickandmortyapi.com/api/character/avatar/735.jpeg","episode":["https://rickandmortyapi.com/api/episode/45"],"url":"https://rickandmortyapi.com/api/character/735","created":"2021-10-17T12:08:38.935Z"},{"id":736,"name":"Spaceman","status":"Dead","species":"Human","type":"","gender":"Male","origin":{"name":"Earth (Replacement Dimension)","url":"https://rickandmortyapi.com/api/location/20"},"location":{"name":"Space","url":"https://rickandmortyapi.com/api/location/115"},"image":"https://rickandmortyapi.com/api/character/avatar/736.jpeg","episode":["https://rickandmortyapi.com/api/episode/45"],"url":"https://rickandmortyapi.com/api/character/736","created":"2021-10-17T12:11:21.171Z"},{"id":737,"name":"Cirque du Soleil Zumanity Member","status":"Alive","species":"Human","type":"","gender":"Female","origin":{"name":"Near-Duplicate Reality","url":"https://rickandmortyapi.com/api/location/104"},"location":{"name":"Earth (Replacement Dimension)","url":"https://rickandmortyapi.com/api/location/20"},"image":"https://rickandmortyapi.com/api/character/avatar/737.jpeg","episode":["https://rickandmortyapi.com/api/episode/45"],"url":"https://rickandmortyapi.com/api/character/737","created":"2021-10-17T12:24:53.547Z"},{"id":738,"name":"Cirque du Soleil Zumanity Member","status":"Alive","species":"Human","type":"","gender":"Male","origin":{"name":"Earth (Replacement Dimension)","url":"https://rickandmortyapi.com/api/location/20"},"location":{"name":"Earth (Replacement Dimension)","url":"https://rickandmortyapi.com/api/location/20"},"image":"https://rickandmortyapi.com/api/character/avatar/738.jpeg","episode":["https://rickandmortyapi.com/api/episode/45"],"url":"https://rickandmortyapi.com/api/character/738","created":"2021-10-17T12:25:18.152Z"},{"id":739,"name":"Cirque du Soleil Zumanity Member","status":"Alive","species":"Human","type":"","gender":"Female","origin":{"name":"Earth (Replacement Dimension)","url":"https://rickandmortyapi.com/api/location/20"},"location":{"name":"Earth (Replacement Dimension)","url":"https://rickandmortyapi.com/api/location/20"},"image":"https://rickandmortyapi.com/api/character/avatar/739.jpeg","episode":["https://rickandmortyapi.com/api/episode/45"],"url":"https://rickandmortyapi.com/api/character/739","created":"2021-10-17T12:25:53.904Z"},{"id":740,"name":"Cirque du Soleil Zumanity Member","status":"Dead","species":"Human","type":"","gender":"Female","origin":{"name":"Earth (Replacement Dimension)","url":"https://rickandmortyapi.com/api/location/20"},"location":{"name":"Earth (Replacement Dimension)","url":"https://rickandmortyapi.com/api/location/20"},"image":"https://rickandmortyapi.com/api/character/avatar/740.jpeg","episode":["https://rickandmortyapi.com/api/episode/45"],"url":"https://rickandmortyapi.com/api/character/740","created":"2021-10-17T12:26:27.530Z"}]},"__N_SSG":true}